<define-tag pagetitle>DLA-3128-1 node-thenify</define-tag>
<define-tag report_date>2022-10-01</define-tag>
<define-tag secrefs>CVE-2020-7677</define-tag>
<define-tag packages>node-thenify</define-tag>
<define-tag isvulnerable>yes</define-tag>
<define-tag fixed>yes</define-tag>
<define-tag fixed-section>no</define-tag>

#use wml::debian::security

