<define-tag pagetitle>DLA-3120-1 poppler</define-tag>
<define-tag report_date>2022-9-26</define-tag>
<define-tag secrefs>CVE-2018-18897 CVE-2018-19058 CVE-2018-20650 CVE-2019-9903 CVE-2019-9959 CVE-2019-14494 CVE-2020-27778 CVE-2022-27337 CVE-2022-38784 Bug#913164 Bug#913177 Bug#917974 Bug#925264 Bug#941776 Bug#933812 Bug#1010695 Bug#1018971</define-tag>
<define-tag packages>poppler</define-tag>
<define-tag isvulnerable>yes</define-tag>
<define-tag fixed>yes</define-tag>
<define-tag fixed-section>no</define-tag>

#use wml::debian::security

