<define-tag pagetitle>DLA-3111-1 mod-wsgi</define-tag>
<define-tag report_date>2022-9-15</define-tag>
<define-tag secrefs>CVE-2022-2255</define-tag>
<define-tag packages>mod-wsgi</define-tag>
<define-tag isvulnerable>yes</define-tag>
<define-tag fixed>yes</define-tag>
<define-tag fixed-section>no</define-tag>

#use wml::debian::security

