<define-tag pagetitle>DLA-3050-1 vlc</define-tag>
<define-tag report_date>2022-06-10</define-tag>
<define-tag secrefs>CVE-2020-26664 Bug#979676</define-tag>
<define-tag packages>vlc</define-tag>
<define-tag isvulnerable>yes</define-tag>
<define-tag fixed>yes</define-tag>
<define-tag fixed-section>no</define-tag>

#use wml::debian::security

