<define-tag pagetitle>DLA-3226-1 cgal</define-tag>
<define-tag report_date>2022-12-06</define-tag>
<define-tag secrefs>CVE-2020-28601 CVE-2020-28602 CVE-2020-28603 CVE-2020-28604 CVE-2020-28605 CVE-2020-28606 CVE-2020-28607 CVE-2020-28608 CVE-2020-28609 CVE-2020-28610 CVE-2020-28611 CVE-2020-28612 CVE-2020-28613 CVE-2020-28614 CVE-2020-28615 CVE-2020-28616 CVE-2020-28617 CVE-2020-28618 CVE-2020-28619 CVE-2020-28620 CVE-2020-28621 CVE-2020-28622 CVE-2020-28623 CVE-2020-28624 CVE-2020-28625 CVE-2020-28626 CVE-2020-28627 CVE-2020-28628 CVE-2020-28629 CVE-2020-28630 CVE-2020-28631 CVE-2020-28632 CVE-2020-28633 CVE-2020-28634 CVE-2020-28635 CVE-2020-28636 CVE-2020-35628 CVE-2020-35629 CVE-2020-35630 CVE-2020-35631 CVE-2020-35632 CVE-2020-35633 CVE-2020-35634 CVE-2020-35635 CVE-2020-35636 Bug#985671</define-tag>
<define-tag packages>cgal</define-tag>
<define-tag isvulnerable>yes</define-tag>
<define-tag fixed>yes</define-tag>
<define-tag fixed-section>no</define-tag>

#use wml::debian::security

