<define-tag pagetitle>DLA-2887-1 lighttpd</define-tag>
<define-tag report_date>2022-01-18</define-tag>
<define-tag secrefs>CVE-2018-19052</define-tag>
<define-tag packages>lighttpd</define-tag>
<define-tag isvulnerable>yes</define-tag>
<define-tag fixed>yes</define-tag>
<define-tag fixed-section>no</define-tag>

#use wml::debian::security

