<define-tag pagetitle>DLA-2968-1 zlib</define-tag>
<define-tag report_date>2022-04-03</define-tag>
<define-tag secrefs>CVE-2018-25032 Bug#1008265</define-tag>
<define-tag packages>zlib</define-tag>
<define-tag isvulnerable>yes</define-tag>
<define-tag fixed>yes</define-tag>
<define-tag fixed-section>no</define-tag>

#use wml::debian::security

