<define-tag pagetitle>DSA-4918-1 ruby-rack-cors</define-tag>
<define-tag report_date>2021-5-18</define-tag>
<define-tag secrefs>CVE-2019-18978 Bug#944849</define-tag>
<define-tag packages>ruby-rack-cors</define-tag>
<define-tag isvulnerable>yes</define-tag>
<define-tag fixed>yes</define-tag>
<define-tag fixed-section>no</define-tag>

#use wml::debian::security



</dl>
