<define-tag pagetitle>DSA-5024-1 apache-log4j2</define-tag>
<define-tag report_date>2021-12-18</define-tag>
<define-tag secrefs>CVE-2021-45105 Bug#1001891</define-tag>
<define-tag packages>apache-log4j2</define-tag>
<define-tag isvulnerable>yes</define-tag>
<define-tag fixed>yes</define-tag>
<define-tag fixed-section>no</define-tag>

#use wml::debian::security



</dl>
