<define-tag pagetitle>DSA-4928-1 htmldoc</define-tag>
<define-tag report_date>2021-6-09</define-tag>
<define-tag secrefs>CVE-2021-23158 CVE-2021-23165 CVE-2021-23180 CVE-2021-23191 CVE-2021-23206 CVE-2021-26252 CVE-2021-26259 CVE-2021-26948</define-tag>
<define-tag packages>htmldoc</define-tag>
<define-tag isvulnerable>yes</define-tag>
<define-tag fixed>yes</define-tag>
<define-tag fixed-section>no</define-tag>

#use wml::debian::security



</dl>
