<define-tag pagetitle>DLA-2768-2 uwsgi</define-tag>
<define-tag report_date>2021-10-20</define-tag>
<define-tag secrefs>CVE-2021-36160 Bug#995368</define-tag>
<define-tag packages>uwsgi</define-tag>
<define-tag isvulnerable>yes</define-tag>
<define-tag fixed>yes</define-tag>
<define-tag fixed-section>no</define-tag>

#use wml::debian::security

