<define-tag pagetitle>DSA-5386-1 chromium</define-tag>
<define-tag report_date>2023-4-12</define-tag>
<define-tag secrefs>CVE-2023-1810 CVE-2023-1811 CVE-2023-1812 CVE-2023-1813 CVE-2023-1814 CVE-2023-1815 CVE-2023-1816 CVE-2023-1817 CVE-2023-1818 CVE-2023-1819 CVE-2023-1820 CVE-2023-1821 CVE-2023-1822 CVE-2023-1823</define-tag>
<define-tag packages>chromium</define-tag>
<define-tag isvulnerable>yes</define-tag>
<define-tag fixed>yes</define-tag>
<define-tag fixed-section>no</define-tag>

#use wml::debian::security



</dl>
