<define-tag pagetitle>DSA-5393-1 chromium</define-tag>
<define-tag report_date>2023-4-22</define-tag>
<define-tag secrefs>CVE-2023-2133 CVE-2023-2134 CVE-2023-2135 CVE-2023-2136 CVE-2023-2137</define-tag>
<define-tag packages>chromium</define-tag>
<define-tag isvulnerable>yes</define-tag>
<define-tag fixed>yes</define-tag>
<define-tag fixed-section>no</define-tag>

#use wml::debian::security



</dl>
