<define-tag pagetitle>DLA-1012-1 puppet</define-tag>
<define-tag report_date>2017-7-3</define-tag>
<define-tag secrefs>CVE-2017-2295 Bug#863212</define-tag>
<define-tag packages>puppet</define-tag>
<define-tag isvulnerable>yes</define-tag>
<define-tag fixed>yes</define-tag>
<define-tag fixed-section>no</define-tag>

#use wml::debian::security

