<define-tag pagetitle>DLA-978-1 perl</define-tag>
<define-tag report_date>2017-6-5</define-tag>
<define-tag secrefs>CVE-2017-6512 Bug#863870</define-tag>
<define-tag packages>perl</define-tag>
<define-tag isvulnerable>yes</define-tag>
<define-tag fixed>yes</define-tag>
<define-tag fixed-section>no</define-tag>

#use wml::debian::security

