<define-tag pagetitle>DLA-837-1 radare2</define-tag>
<define-tag report_date>2017-2-26</define-tag>
<define-tag secrefs>CVE-2017-6197 Bug#856063</define-tag>
<define-tag packages>radare2</define-tag>
<define-tag isvulnerable>yes</define-tag>
<define-tag fixed>yes</define-tag>
<define-tag fixed-section>no</define-tag>

#use wml::debian::security

