<define-tag pagetitle>DLA-3363-1 pcre2</define-tag>
<define-tag report_date>2023-03-16</define-tag>
<define-tag secrefs>CVE-2019-20454 CVE-2022-1586 CVE-2022-1587 Bug#1011954</define-tag>
<define-tag packages>pcre2</define-tag>
<define-tag isvulnerable>yes</define-tag>
<define-tag fixed>yes</define-tag>
<define-tag fixed-section>no</define-tag>

#use wml::debian::security

