<define-tag pagetitle>DLA-3390-1 zabbix</define-tag>
<define-tag report_date>2023-04-12</define-tag>
<define-tag secrefs>CVE-2019-15132 CVE-2020-15803 CVE-2021-27927 CVE-2022-24349 CVE-2022-24917 CVE-2022-24919 CVE-2022-35229 CVE-2022-35230 Bug#935027 Bug#966146 Bug#1014992 Bug#1014994</define-tag>
<define-tag packages>zabbix</define-tag>
<define-tag isvulnerable>yes</define-tag>
<define-tag fixed>yes</define-tag>
<define-tag fixed-section>no</define-tag>

#use wml::debian::security

