<define-tag pagetitle>DLA-3270-1 net-snmp</define-tag>
<define-tag report_date>2023-01-15</define-tag>
<define-tag secrefs>CVE-2022-44792 CVE-2022-44793 Bug#1024020</define-tag>
<define-tag packages>net-snmp</define-tag>
<define-tag isvulnerable>yes</define-tag>
<define-tag fixed>yes</define-tag>
<define-tag fixed-section>no</define-tag>

#use wml::debian::security

