<define-tag pagetitle>DLA-3295-1 node-moment</define-tag>
<define-tag report_date>2023-01-31</define-tag>
<define-tag secrefs>CVE-2022-24785 CVE-2022-31129 Bug#1009327 Bug#1014845</define-tag>
<define-tag packages>node-moment</define-tag>
<define-tag isvulnerable>yes</define-tag>
<define-tag fixed>yes</define-tag>
<define-tag fixed-section>no</define-tag>

#use wml::debian::security

