<define-tag pagetitle>DLA-3377-1 systemd</define-tag>
<define-tag report_date>2023-03-31</define-tag>
<define-tag secrefs>CVE-2023-26604</define-tag>
<define-tag packages>systemd</define-tag>
<define-tag isvulnerable>yes</define-tag>
<define-tag fixed>yes</define-tag>
<define-tag fixed-section>no</define-tag>

#use wml::debian::security

