<define-tag pagetitle>DLA-3279-1 trafficserver</define-tag>
<define-tag report_date>2023-01-23</define-tag>
<define-tag secrefs>CVE-2021-37150 CVE-2022-25763 CVE-2022-28129 CVE-2022-31780</define-tag>
<define-tag packages>trafficserver</define-tag>
<define-tag isvulnerable>yes</define-tag>
<define-tag fixed>yes</define-tag>
<define-tag fixed-section>no</define-tag>

#use wml::debian::security

