<define-tag pagetitle>DLA-2271-1 coturn</define-tag>
<define-tag report_date>2020-07-01</define-tag>
<define-tag secrefs>CVE-2020-4067</define-tag>
<define-tag packages>coturn</define-tag>
<define-tag isvulnerable>yes</define-tag>
<define-tag fixed>yes</define-tag>
<define-tag fixed-section>no</define-tag>

#use wml::debian::security

