<define-tag pagetitle>DSA-4501-1 libreoffice</define-tag>
<define-tag report_date>2019-8-15</define-tag>
<define-tag secrefs>CVE-2019-9850 CVE-2019-9851 CVE-2019-9852</define-tag>
<define-tag packages>libreoffice</define-tag>
<define-tag isvulnerable>yes</define-tag>
<define-tag fixed>yes</define-tag>
<define-tag fixed-section>no</define-tag>

#use wml::debian::security



</dl>
