<define-tag pagetitle>DSA-4531-1 linux</define-tag>
<define-tag report_date>2019-9-25</define-tag>
<define-tag secrefs>CVE-2019-14821 CVE-2019-14835 CVE-2019-15117 CVE-2019-15118 CVE-2019-15902</define-tag>
<define-tag packages>linux</define-tag>
<define-tag isvulnerable>yes</define-tag>
<define-tag fixed>yes</define-tag>
<define-tag fixed-section>no</define-tag>

#use wml::debian::security



</dl>
