<define-tag pagetitle>DSA-5246-1 mediawiki</define-tag>
<define-tag report_date>2022-10-04</define-tag>
<define-tag secrefs>CVE-2021-44854 CVE-2021-44855 CVE-2021-44856 CVE-2022-28201 CVE-2022-28202 CVE-2022-28203 CVE-2022-29248 CVE-2022-31042 CVE-2022-31043 CVE-2022-31090 CVE-2022-31091 CVE-2022-34911 CVE-2022-34912 CVE-2022-41765 CVE-2022-41767</define-tag>
<define-tag packages>mediawiki</define-tag>
<define-tag isvulnerable>yes</define-tag>
<define-tag fixed>yes</define-tag>
<define-tag fixed-section>no</define-tag>

#use wml::debian::security



</dl>
