<define-tag pagetitle>DSA-5275-1 chromium</define-tag>
<define-tag report_date>2022-11-10</define-tag>
<define-tag secrefs>CVE-2022-3885 CVE-2022-3886 CVE-2022-3887 CVE-2022-3888 CVE-2022-3889 CVE-2022-3890 Bug#1015931</define-tag>
<define-tag packages>chromium</define-tag>
<define-tag isvulnerable>yes</define-tag>
<define-tag fixed>yes</define-tag>
<define-tag fixed-section>no</define-tag>

#use wml::debian::security



</dl>
