<define-tag pagetitle>DSA-5163-1 chromium</define-tag>
<define-tag report_date>2022-6-12</define-tag>
<define-tag secrefs>CVE-2022-2007 CVE-2022-2008 CVE-2022-2010 CVE-2022-2011</define-tag>
<define-tag packages>chromium</define-tag>
<define-tag isvulnerable>yes</define-tag>
<define-tag fixed>yes</define-tag>
<define-tag fixed-section>no</define-tag>

#use wml::debian::security



</dl>
