<define-tag pagetitle>DLA-374-2 cacti</define-tag>
<define-tag report_date>2015-12-30</define-tag>
<define-tag packages>cacti</define-tag>
<define-tag isvulnerable>yes</define-tag>
<define-tag fixed>yes</define-tag>
<define-tag fixed-section>no</define-tag>

#use wml::debian::security

