<define-tag pagetitle>DLA-1838-1 mupdf</define-tag>
<define-tag report_date>2019-06-28</define-tag>
<define-tag secrefs>CVE-2018-5686 CVE-2019-6130 CVE-2018-6192 Bug#887130 Bug#888487 Bug#918971</define-tag>
<define-tag packages>mupdf</define-tag>
<define-tag isvulnerable>yes</define-tag>
<define-tag fixed>yes</define-tag>
<define-tag fixed-section>no</define-tag>

#use wml::debian::security

