<define-tag pagetitle>DLA-1796-1 jruby</define-tag>
<define-tag report_date>2019-05-21</define-tag>
<define-tag secrefs>CVE-2018-1000074 CVE-2018-1000075 CVE-2018-1000076 CVE-2018-1000077 CVE-2018-1000078 CVE-2019-8321 CVE-2019-8322 CVE-2019-8323 CVE-2019-8324 CVE-2019-8325 Bug#895778 Bug#925987</define-tag>
<define-tag packages>jruby</define-tag>
<define-tag isvulnerable>yes</define-tag>
<define-tag fixed>yes</define-tag>
<define-tag fixed-section>no</define-tag>

#use wml::debian::security

