<define-tag pagetitle>DLA-1835-2 python3.4</define-tag>
<define-tag report_date>2019-06-25</define-tag>
<define-tag secrefs>CVE-2019-9740 CVE-2019-9947 Bug#931044</define-tag>
<define-tag packages>python3.4</define-tag>
<define-tag isvulnerable>yes</define-tag>
<define-tag fixed>yes</define-tag>
<define-tag fixed-section>no</define-tag>

#use wml::debian::security

